{
    "ListNews" : [
                  {
                  "title" : "New York - nỗi ám ảnh khôn nguôi về những kẻ khủng bố",
                  "time" : "05:47 13/12/2017",
                  "head" : "Thành phố không chỉ là biểu tượng cho văn hóa, \"giấc mơ Mỹ\" của hàng triệu người, mà còn là cái đích mà những kẻ cực đoan luôn muốn nhắm đến để khủng bố",
                  "content" : "Vụ nổ xảy ra vào khoảng 7h20 ở lối đi nối các ga tàu điện ngầm đông đúc tại Quảng trường Thời đại và ga Port Authority. James O'Neill, cảnh sát trưởng thành phố, xác định kẻ tấn công là Akayed Ullah, 27 tuổi, đến từ Brooklyn. Các báo khác, dẫn nguồn cảnh sát giấu tên, cho biết Ullah là một người nhập cư từ Bangladesh đã sống ở Mỹ được 7 năm. Ullah bị thương nặng trong vụ nổ, trong khi ba người khác bị thương nhẹ, các quan chức cho biết.",
                  "image" : "1"
                  },
                  {
                  "title" : "Giờ mới chuyển sang xăng E5 là chậm, sao còn chưa sẵn sàng dùng?",
                  "time" : "09:39 13/12/2017",
                  "head" : "Ông Phan Thế Ruệ, Chủ tịch Hiệp hội Kinh doanh xăng dầu cho biết giờ mới chuyển đổi sang dùng xăng E5 là chậm. Dù vậy, ông thừa nhận một bộ phận khách hàng vẫn e dè, chưa sẵn sàng",
                  "content" : "Trước thời điểm chính thức chuyển đổi từ xăng A92 sang xăng E5, Bộ Công Thương liên tục tổ chức các cuộc họp để giải quyết các vướng mắc cũng như thúc đẩy nhanh quá trình này. Ngày 6/12, Bộ tổ chức họp kín, ngày 7/12, họp với đại diện các thương nhân đầu mối xăng dầu, sở công thương các tỉnh, thành phố phía Bắc. Ngày 9/12, một cuộc họp tương tự cũng diễn ra tại miền Nam.",
                  "image" : "2"
                  },
                  {
                  "title" : "Kim Jong Un: Triều Tiên sẽ là cường quốc hạt nhân mạnh nhất thế giới",
                  "time" : "09:06 13/12/2017",
                  "head" : "Nhà lãnh đạo Triều Tiên bày tỏ mong muốn biến đất nước thành \"cường quốc hạt nhân mạnh nhất thế giới\" trong bối cảnh căng thẳng với Mỹ chưa có dấu hiệu hạ nhiệt.",
                  "content" : "Hãng thông tấn Nhà nước Triều Tiên KCNA dẫn lời nhà lãnh đạo Kim Jong Un nói với các công nhân trước vụ phóng tên lửa hồi cuối tháng 11 rằng Bình Nhưỡng \"sẽ nhảy vọt để trở thành cường quốc hạt nhân và quân sự mạnh nhất thế giới\". Phát biểu của ông Kim Jong Un được đưa ra trước khi Triều Tiên bắn tên lửa đạn đạo liên lục địa Hwasong-15 mới. Tên lửa được cho là có khả năng bắn tới lục địa Mỹ. ",
                  "image" : "3"
                  },
                  {
                  "title" : "Khăn Khaisilk không có thành phần lụa, chuyển hồ sơ sang công an",
                  "time" : "12:54 12/12/2017",
                  "head" : "Công ty TNHH Khải Đức của doanh nhân Hoàng Khải có 5 sai phạm. Phát hiệu dấu hiệu vi phạm hình sự, Bộ Công Thương chuyển hồ sơ, vật chứng cho cơ quan cảnh sát điều tra xử lý.",
                  "content" : "Bộ Công Thương phát đi thông báo kết luận kiểm tra đối với Công ty TNHH Khải Đức. Khải Đức kinh doanh trong nhiều lĩnh vực khác nhau song đoàn kiểm tra chỉ tập trung xác minh, kiểm tra các nội dung liên quan đến hoạt động sản xuất/gia công, xuất/nhập khẩu, mua bán các sản phẩm thời trang.",
                  "image" : "4"
                  },
                  {
                  "title" : "Bắt thầy giáo thể dục kiêm võ sư bị tố dâm ô nữ sinh cấp 2",
                  "time" : "00:37 13/12/2017",
                  "head" : "Thầy giáo dạy thể dục kiêm võ sư ở An Giang có mối \"quan hệ bất thường\" với nữ sinh lớp 8 nên bị người nhà tố cáo, yêu cầu cảnh sát vào cuộc điều tra.",
                  "content" : "Tối 12/12, đại tá Lê Văn Ở, Trưởng Công an thị xã Tân Châu (An Giang), cho biết cơ quan điều tra đã khởi tố bị can, bắt tạm giam đối với Quách Tỉnh (32 tuổi, ngụ ấp Vĩnh Tường 1, xã Châu Phong) để điều tra về hành vi Dâm ô trẻ em. Chiều hơn hai tháng trước (1/9), mẹ ruột của nữ sinh Hương (13 tuổi, học lớp 8, tên nạn nhân đã thay đổi) đến trình báo với cảnh sát về việc ông Tỉnh có hành vi xâm hại tình dục con bà.",
                  "image" : "5"
                  },
                  {
                  "title" : "Thất bại muối mặt của Trump: Phe Cộng hòa mất ghế TNS ở Alabama",
                  "time" : "14:29 13/12/2017",
                  "head" : "Lần đầu tiên sau 25 năm, phe Dân chủ giành được ghế thượng nghị sĩ ở bang Alabama, thủ phủ phe Cộng hòa. Đây là thất bại lớn của Tổng thống Trump một năm sau nhậm chức.",
                  "content" : "Cuộc bầu cử thượng nghị sĩ bang Alabama được cả nước Mỹ hồi hộp theo dõi ngày 12/12 đã kết thúc với phần thắng thuộc về ứng viên đảng Dân chủ Doug Jones. Ông Jones giành chiến thắng sít sao trước ứng viên đảng Cộng hòa Roy Moore. \nĐây được coi là thất bại đối với ông Trump, người tuyên bố hoàn toàn ủng hộ ông Roy Moore bất chấp việc ông này vướng vào các cáo buộc tấn công tình dục trẻ vị thành niên. \nĐây cũng là chiến thắng đầu tiên của phe Dân chủ trong bầu cử thượng nghị sĩ tại bang Alabama trong vòng 25 năm. Chiến thắng này rất quan trọng đối với đảng Dân chủ, vì Alabama được đánh giá tại một trong những bang miền Nam, vốn là thủ phủ của phe Cộng hòa.",
                  "image" : "6"
                  }
                 
                  
    ]
}
